ALU/isim.log
ISim log file
Running: U:\3710\3710\ALU\ALU_tests_isim_beh.exe -gui -tclbatch isim.cmd -wdb U:/3710/3710/ALU/ALU_tests_isim_beh.wdb 
ISim M.63c (signature 0xb869381d)
WARNING: A WEBPACK license was found.
WARNING: Please use Xilinx License Configuration Manager to check out a full ISim license.
WARNING: ISim will run in Lite mode. Please refer to the ISim documentation for more information on the differences between the Lite and the Full version.
This is a Lite version of ISim.
Time resolution is 1 ps
# onerror resume
# wave add /
# run 1000 ns
Simulator is doing circuit initialization process.
Testing opcode ADD...
Finished circuit initialization process.
Wrong for Opcode: 00000000, A: 0000000000101101, B: 0000000000101010
Expected flags 00010, but got 00000. ({Carry,Flag,Low,Negative,Zero})
Testing opcode ADDI...
Wrong for Opcode: 00000010, A: 0000000000101101, B: 0000000000101010
Expected flags 00010, but got 00000. ({Carry,Flag,Low,Negative,Zero})
Testing opcode ADDU...
Wrong for Opcode: 00000001, A: 0000000000000001, B: 1111111111111111
Expected flags 01100, but got 10100. ({Carry,Flag,Low,Negative,Zero})
Testing opcode ADDUI...
Wrong for Opcode: 00000011, A: 0000000000000001, B: 1111111111111111
Expected flags 01100, but got 10100. ({Carry,Flag,Low,Negative,Zero})
Testing opcode ADDCU...
Wrong for Opcode: 00000100, A: 0000000000000001, B: 1111111111111111
Expected flags 01100, but got 10100. ({Carry,Flag,Low,Negative,Zero})
Testing opcode ADDCUI...
Wrong for Opcode: 00000101, A: 0000000000000001, B: 1111111111111111
Expected flags 01100, but got 10100. ({Carry,Flag,Low,Negative,Zero})
Testing opcode SUB...
Wrong for Opcode: 00000110, A: 0000000000101101, B: 0000000000101111
Expected flags 00110, but got 01110. ({Carry,Flag,Low,Negative,Zero})
Wrong for Opcode: 00000110, A: 1111111111110001, B: 0000000000001111
Expected flags 00101, but got 00110. ({Carry,Flag,Low,Negative,Zero})
Wrong for Opcode: 00000110, A: 0000111100001111, B: 1111000011110001
Expected flags 00001, but got 00000. ({Carry,Flag,Low,Negative,Zero})
Wrong for Opcode: 00000110, A: 0111111111111111, B: 1111111111111111
Expected flags 01000, but got 00010. ({Carry,Flag,Low,Negative,Zero})
Wrong for Opcode: 00000110, A: 1000000000000000, B: 0000000000000001
Expected flags 01100, but got 00100. ({Carry,Flag,Low,Negative,Zero})
Testing opcode SUBI...
Wrong for Opcode: 00000111, A: 0000000000101101, B: 0000000000101111
Expected flags 00110, but got 01110. ({Carry,Flag,Low,Negative,Zero})
Wrong for Opcode: 00000111, A: 1111111111110001, B: 0000000000001111
Expected flags 00101, but got 00110. ({Carry,Flag,Low,Negative,Zero})
Wrong for Opcode: 00000111, A: 0000111100001111, B: 1111000011110001
Expected flags 00001, but got 00000. ({Carry,Flag,Low,Negative,Zero})
Wrong for Opcode: 00000111, A: 0111111111111111, B: 1111111111111111
Expected flags 01000, but got 00010. ({Carry,Flag,Low,Negative,Zero})
Wrong for Opcode: 00000111, A: 1000000000000000, B: 0000000000000001
Expected flags 01100, but got 00100. ({Carry,Flag,Low,Negative,Zero})
Testing opcode CMP...
Wrong for Opcode: 00001000, A: 0000000000000010, B: 0000111110100000
Expected flags 00100, but got 00110. ({Carry,Flag,Low,Negative,Zero})
Testing opcode CMPI...
Wrong for Opcode: 00001001, A: 0000000000000010, B: 0000111110100000
Expected flags 00100, but got 00110. ({Carry,Flag,Low,Negative,Zero})
Testing opcode AND...
Wrong for Opcode: 00001011, A: 0000011111010000, B: 0000111110100000
Expected flags 00000, but got 00110. ({Carry,Flag,Low,Negative,Zero})
Testing opcode OR...
Wrong for Opcode: 00001100, A: 0000000000101101, B: 0000000000101101
Expected flags 00000, but got 00001. ({Carry,Flag,Low,Negative,Zero})
Wrong for Opcode: 00001100, A: 0000111111110001, B: 0000000000001111
Expected flags 00000, but got 00001. ({Carry,Flag,Low,Negative,Zero})
Wrong for Opcode: 00001100, A: 0000011111010000, B: 0000111110100000
Expected flags 00000, but got 00110. ({Carry,Flag,Low,Negative,Zero})
Testing opcode XOR..

Wrong for Opcode: 00001101, A: 0000000000101101, B: 0000000000101101
Expected flags 00000, but got 00001. ({Carry,Flag,Low,Negative,Zero})
Wrong for Opcode: 00001101, A: 0000011111010000, B: 0000111110100000
Expected flags 00000, but got 00110. ({Carry,Flag,Low,Negative,Zero})
Testing opcode LSH..

Testing opcode LSHI...
Testing opcode RSH...
Testing opcode RSHI...
Testing opcode ALSH...
Wrong for Opcode: 00010011, A: 0001000100010001, B: 0000000000000001
Expected 0010001000100011, but got 0010001000100010.
Testing opcode ARSH..

Testing opcode NOP...
Stopped at time : 730 ns : File "//wannsee/users/u0595680/Desktop/3710/3710/ALU/ALU_tests.v" Line 1118
